module gitlab.com/josephhlwang/gobank

go 1.16

require (
	github.com/gin-gonic/gin v1.6.3
	github.com/go-playground/validator/v10 v10.4.1 // indirect
	github.com/golang/mock v1.3.1
	github.com/golang/protobuf v1.5.2 // indirect
	github.com/json-iterator/go v1.1.10 // indirect
	github.com/leodido/go-urn v1.2.1 // indirect
	github.com/lib/pq v1.10.0
	github.com/spf13/viper v1.7.1
	github.com/stretchr/testify v1.7.0
	github.com/ugorji/go v1.2.5 // indirect
	golang.org/x/crypto v0.0.0-20210322153248-0c34fe9e7dc2 // indirect
	golang.org/x/sys v0.0.0-20210331175145-43e1dd70ce54 // indirect
	gopkg.in/yaml.v2 v2.4.0 // indirect
)
